<?xml version="1.0" encoding="utf-8"?>
<!-- Generator: Adobe Illustrator 19.1.0, SVG Export Plug-In . SVG Version: 6.00 Build 0)  -->
<svg version="1.1" id="Layer_1" xmlns="http://www.w3.org/2000/svg" xmlns:xlink="http://www.w3.org/1999/xlink" x="0px" y="0px"
	 viewBox="-91 35 16 10.8" style="enable-background:new -91 35 16 10.8;" xml:space="preserve">
<style type="text/css">
	.st0{fill:#FFFFFF;}
	.st1{fill:#DFDFDF;}
</style>
<g transform="translate(0, 0)">
	<polygon class="st0" points="-81,35 -79.6,36.4 -83.6,40.4 -79.6,44.4 -81,45.8 -86.4,40.4 	"/>
</g>
</svg>
