<?xml version="1.0" encoding="utf-8"?>
<!-- Generator: Adobe Illustrator 19.1.0, SVG Export Plug-In . SVG Version: 6.00 Build 0)  -->
<svg version="1.1" id="Layer_1" xmlns="http://www.w3.org/2000/svg" xmlns:xlink="http://www.w3.org/1999/xlink" x="0px" y="0px"
	 viewBox="0 0 50 50" style="enable-background:new 0 0 50 50;" xml:space="preserve">
<style type="text/css">
	.st0{fill:#FF7175;}
</style>
<rect x="20.6" y="-6.1" transform="matrix(0.7071 -0.7071 0.7071 0.7071 -10.308 24.8857)" class="st0" width="8.5" height="61.9"/>
<rect x="20.6" y="-6.1" transform="matrix(-0.7071 -0.7071 0.7071 -0.7071 24.8857 60.0793)" class="st0" width="8.5" height="61.9"/>
</svg>
